…
- Now, let's find the countries that have life expectancies that are below this global standard.

```r
p <- gapminder %>%
  select(country, continent, year, lifeExp) %>%
  filter(lifeExp < median(lifeExp)) %>% 
  group_by(continent, year) %>% 
  summarise(count_countries=n())
(p)
```

```
## # A tibble: 41 x 3
## # Groups:   continent [4]
##    continent  year count_countries
##    <fct>     <int>           <int>
##  1 Africa     1952              52
##  2 Africa     1957              52
##  3 Africa     1962              52
##  4 Africa     1967              51
##  5 Africa     1972              50
##  6 Africa     1977              50
##  7 Africa     1982              46
##  8 Africa     1987              41
##  9 Africa     1992              40
## 10 Africa     1997              44
## # … with 31 more rows
```
…
I will not draw any qualitative interpretations from this data, more statistical analysis should be done in order to do so.


# Weighted mean of life expectancy, by population

```r
gapminder %>% group_by(continent,year) %>%
  summarise(vanilla_mean = mean(lifeExp),
            mean_lifeExp_pop = weighted.mean(lifeExp,pop))
```

```
## # A tibble: 60 x 4
## # Groups:   continent [5]
##    continent  year vanilla_mean mean_lifeExp_pop
##    <fct>     <int>        <dbl>            <dbl>
##  1 Africa     1952         39.1             38.8
##  2 Africa     1957         41.3             40.9
##  3 Africa     1962         43.3             43.1
##  4 Africa     1967         45.3             45.2
##  5 Africa     1972         47.5             47.2
##  6 Africa     1977         49.6             49.2
##  7 Africa     1982         51.6             51.0
##  8 Africa     1987         53.3             52.8
##  9 Africa     1992         53.6             53.4
## 10 Africa     1997         53.6             53.3
## # … with 50 more rows
```
…
